+proj=utm +zone=29 +ellps=WGS84 +datum=WGS84 +units=m +no_defs	
549826.82	4599616.48	234.984954545455	4054.59	2619.77	DJI_0695.jpg
549826.82	4599616.48	234.984954545455	4145.61	179.11	DJI_0693.jpg
549826.82	4599616.48	234.984954545455	4098.80	1386.67	DJI_0694.jpg
549966.44	4599727.56	238.898384615385	4274.29	2100.83	DJI_0745.jpg
549966.44	4599727.56	238.898384615385	4246.97	798.31	DJI_0744.jpg
549949.42	4599575.45	237.430344262295	3671.50	632.00	DJI_0738.jpg
549949.42	4599575.45	237.430344262295	4062.86	154.64	DJI_0737.jpg
549949.42	4599575.45	237.430344262295	678.68	368.21	DJI_0719.jpg
549782.23	4599684.56	234.776166666667	5218.76	1281.62	DJI_0690.jpg
549782.23	4599684.56	234.776166666667	3864.05	2812.45	DJI_0687.jpg
549782.23	4599684.56	234.776166666667	3877.86	2010.46	DJI_0686.jpg
549782.23	4599684.56	234.776166666667	5183.83	2497.74	DJI_0691.jpg
549834.10	4599759.22	239.784912280702	493.37	3336.16	DJI_0689.jpg
549834.10	4599759.22	239.784912280702	3493.76	1042.89	DJI_0709.jpg
549834.10	4599759.22	239.784912280702	3488.57	626.59	DJI_0708.jpg